module secrypt

go 1.18

require (
	github.com/aws/aws-sdk-go-v2 v1.16.2
	github.com/aws/aws-sdk-go-v2/config v1.15.3
	github.com/aws/aws-sdk-go-v2/service/kms v1.16.3
)

require (
	github.com/aws/aws-sdk-go-v2/credentials v1.11.2 // indirect
	github.com/aws/aws-sdk-go-v2/feature/ec2/imds v1.12.3 // indirect
	github.com/aws/aws-sdk-go-v2/internal/configsources v1.1.9 // indirect
	github.com/aws/aws-sdk-go-v2/internal/endpoints/v2 v2.4.3 // indirect
	github.com/aws/aws-sdk-go-v2/internal/ini v1.3.10 // indirect
	github.com/aws/aws-sdk-go-v2/service/internal/presigned-url v1.9.3 // indirect
	github.com/aws/aws-sdk-go-v2/service/sso v1.11.3 // indirect
	github.com/aws/aws-sdk-go-v2/service/sts v1.16.3 // indirect
	github.com/aws/smithy-go v1.11.2 // indirect
	github.com/cpuguy83/go-md2man/v2 v2.0.1 // indirect
	github.com/russross/blackfriday/v2 v2.1.0 // indirect
	github.com/urfave/cli/v2 v2.4.0 // indirect
)
